<?xml version="1.0" standalone="no"?>
<!DOCTYPE svg PUBLIC "-//W3C//DTD SVG 20010904//EN"
 "http://www.w3.org/TR/2001/REC-SVG-20010904/DTD/svg10.dtd">
<svg version="1.0" xmlns="http://www.w3.org/2000/svg"
 width="700.000000pt" height="700.000000pt" viewBox="0 0 700.000000 700.000000"
 preserveAspectRatio="xMidYMid meet">
<metadata>
Created by potrace 1.14, written by Peter Selinger 2001-2017
</metadata>
<g transform="translate(0.000000,700.000000) scale(0.100000,-0.100000)"
fill="#000000" stroke="none">
<path d="M1255 6993 c-138 -12 -350 -75 -485 -143 -386 -196 -644 -533 -742
-971 l-23 -104 0 -2275 0 -2275 23 -104 c128 -568 527 -968 1095 -1093 l102
-23 2275 0 2275 0 102 23 c566 125 970 529 1095 1095 l23 102 0 2275 0 2275
-23 102 c-125 566 -522 964 -1090 1095 l-97 22 -2245 2 c-1235 0 -2263 -1
-2285 -3z m2935 -1196 c152 -22 247 -43 350 -79 291 -103 520 -289 639 -518
79 -151 106 -284 105 -515 -1 -185 -19 -303 -68 -447 -95 -278 -331 -532 -655
-702 -45 -24 -71 -43 -68 -51 5 -11 1295 -1672 1335 -1717 14 -17 -16 -18
-629 -17 l-644 0 -550 742 -551 742 -247 3 -247 2 0 -745 0 -745 -520 0 -520
0 0 2036 0 2035 1078 -4 c925 -3 1093 -6 1192 -20z"/>
<path d="M2960 4526 l0 -546 279 0 c505 0 647 31 800 176 115 108 161 223 161
407 0 274 -124 423 -405 484 -52 11 -166 16 -452 20 l-383 5 0 -546z"/>
</g>
</svg>
